﻿{
  "profiles": {
    "k8s.deckhand": {
      "commandName": "Project",
      "launchBrowser": false,
      "applicationUrl": "https://localhost:5001;http://localhost:5000",
      "environmentVariables": {
        "ASPNETCORE_HTTPS_PORT": "5001",
        "ASPNETCORE_URLS": "https://+:5001;http://+:5000",
        "ASPNETCORE_ENVIRONMENT": "Development"
      }
    },
    "k8s.deckhand - docker": {
      "commandName": "Docker",
      "launchBrowser": true,
      "launchUrl": "{Scheme}://{ServiceHost}:{ServicePort}",
      "environmentVariables": {
        "UseInMemoryDatabase": "true",
        "ASPNETCORE_HTTPS_PORT": "5001",
        "ASPNETCORE_URLS": "https://+:5001;http://+:5000",
        "ASPNETCORE_ENVIRONMENT": "Development"
      },
      "httpPort": 5000,
      "useSSL": true,
      "sslPort": 5001
    }
  }
}
